vhdl work "ipcore_dir/BRAM.vhd"
vhdl work "WIDTH.vhd"
vhdl work "RISETIME_COMPONENT.vhd"
vhdl work "INTEGRATOR.vhd"
vhdl work "DEBOUNCER.vhd"
vhdl work "BLINE.vhd"
vhdl work "VETO_COMPONENT.vhd"
vhdl work "STATUS_LED_COMPONENT.vhd"
vhdl work "STATUS.vhd"
vhdl work "RADIAL_POSITION_COMPONENT.vhd"
vhdl work "PEAK_INFO_COMPONENT.vhd"
vhdl work "INITIATE.vhd"
vhdl work "CTRL_reg_CPU_writes.vhd"
vhdl work "HE_veto1_2.vhd"
